…
## Vancouver tree data

The **Vancouver tree** data has tree information for different
neighborhood. One important measure of tree is diameter, and the tree
**diameter** can vary based on categorical variable
**neighborhood_name**. The **summary.stat** function can quickly
summarise selected tree summary measures for different neighborhoods.

``` r
tree_summary <- summary.stat(vancouver_trees, neighbourhood_name, diameter)
tree_summary
```

    ## # A tibble: 22 × 5
    ##    neighbourhood_name           n  mean range stdev
    ##    <chr>                    <int> <dbl> <dbl> <dbl>
    ##  1 ARBUTUS-RIDGE             5169 11.9   62    8.67
    ##  2 DOWNTOWN                  5159  7.45 150    5.12
    ##  3 DUNBAR-SOUTHLANDS         9415 13.9  305   11.0 
    ##  4 FAIRVIEW                  4002 10.6   97.8  7.98
    ##  5 GRANDVIEW-WOODLAND        6703 11.4   63    9.12
    ##  6 HASTINGS-SUNRISE         10547 11.0  435    9.49
    ##  7 KENSINGTON-CEDAR COTTAGE 11042 11.7   99    8.93
    ##  8 KERRISDALE                6936 12.7  156    9.80
    ##  9 KILLARNEY                 6148 10.1   50    7.49
    ## 10 KITSILANO                 8115 14.4  317   10.8 
    ## # ℹ 12 more rows
…
